{
  "type": "service_account",
  "project_id": "gina-cqtl",
  "private_key_id": "2f05e50f999672d25260bfacf090ecb58aa1cc1d",
  "private_key": "-----BEGIN PRIVATE KEY-----\nMIIEvAIBADANBgkqhkiG9w0BAQEFAASCBKYwggSiAgEAAoIBAQC3sCIBYADx8QOo\nCvL2UVfyIR3nGxC4GE4xM9k1b5vEo2CCyl9OtEBj8IsUivJE4dpYFpQbXMAH4g8e\nxgelQxONT1oqA5m7mJMH19VMxyKiw+U7RbWGfHt/TKW60+qNnV8c6ly7P7SfiqXQ\n+beRnY9pH1zaBIN3pBbXuvUxVFIRohw2RNsZN8Uj2WptSkf6/cJWuxFtBEMIEO2L\nIPRc4EmtK37sDoi5+4K4z0VwdhtQC5z8l+tI5FI8xtElot7ssBhkDiDnnpVLLnEz\njUA3XCR+TN1NOJy1YR0cBF+qRIyNw3GoF4dywTk8ibdvTY5ezdM/KRhGtkS9A9Ay\nN7Uw22V/AgMBAAECggEAPYQjH0rDhkMs8k4YaB190nz8wrTxuHWLWjb++0JRbF06\nqRKVMIp1NgMM0OhnkmIA+Zc2KqO5O+qdHbU8QkBgf+afT4q9JXJHa00BBiF6m//2\n+Q6zaEKwKUXGCveFib+2ZrymKZ+AIh4QwhefPokByjbSpcD1NlAhxkW6b7bJdVW/\nQtyK4KNJi1vU5jbsjqNb+sBBCn4WfXVb/YXj5oiVFT3olFDnjdznRFbsljge6jGz\nHo/NWPyVYWYwnq1GQLuSZPegknxEGzVptSKP6Cwe2JuTPn7xoxTPSBw/VlH1xHrP\n+P5+xbWMyar3DBwejk6cD5SOz/HPgxQUUHO/2quaAQKBgQDtAzpOiVfpxAahO/yU\nItlsl4aru5LrYEkXzq8BwyB4AHxsOSe3R2Aglz5pzmlxC0FamWi3x0oFUuTx+6j5\nopS0K/Kie7WsOVvRtAQ+AvP7n9BHV/04z66oei+O4bKa5JRoBhfBDT8iYeYHdma5\nNxyS6h4uTLCDNVqiJSXsOhSsvwKBgQDGZ0xER0yt5piCiC22BNbPKspCBCB5/9Jc\nuWP7IjYwaTtAlQZP8hybRReKz9tuGjueEBpkz+pJk/KNCi53QHmBmyJJoRZqi5+G\nOkuBE4+YXie4gXQfPjicI4osPtPGMiiAI//23pN2dfWPUvT8IYUuQDoaBrSgxGlQ\ntcaeeqG3QQKBgFdHpwMg5LT7MQ3TD1Jl+vdYXYmES7hN/ty7igr2FlDarPcVnSCL\nMkUOLTe9gWrVoD2C3ONAimuneRP7fuBfFK+8t19Kez5u6PcyeZV0dPCmi4aaSm/P\nWxxD0pulVaZgop4kED9RZ3x73L/GxFFUkDsx5+dY6m+HCFdJost5H//1AoGAcui/\nBkiZQ5rrt6Yxe1tgIkpxLD0BpkchSizhmEDfS7iW5beqGUFrig5BLVdnimRNJSXE\nc6Dr28OBVmiQMuc3uHXmLOjMd9b4BKDcvBxdLW1S6gyn+bRqyxvWWfvlYcQJKvYu\nuId+trxpBaKRWzn6zafLPumlUfuP13wAVidGZEECgYAIf/EQhZD5r6/C0SojPbfp\nbU6WirrbpF1HlxwU8yiANpEmiU5RDZ4l9MMA7ln5dLJ6m+fxkyvb4WC820j9Lk+W\nhDwqAcrpabplbng90cJT+7WBELOryTmzVuyQWf4sSCrtdTmPnwXLdsjR2045WRpe\nSsKMKsAx+55BXfdrPzN+6Q==\n-----END PRIVATE KEY-----\n",
  "client_email": "gina-server@gina-cqtl.iam.gserviceaccount.com",
  "client_id": "115066392981582908774",
  "auth_uri": "https://accounts.google.com/o/oauth2/auth",
  "token_uri": "https://oauth2.googleapis.com/token",
  "auth_provider_x509_cert_url": "https://www.googleapis.com/oauth2/v1/certs",
  "client_x509_cert_url": "https://www.googleapis.com/robot/v1/metadata/x509/gina-server%40gina-cqtl.iam.gserviceaccount.com"
}
